{
  "activeSolution": "Leopard Test Solution",
  "solutions": [{
    "name": "Leopard Test Solution",
    "url": "https://teneo-demos-fusion.presales.artificial-solutions.com/leopard/",
    "deepLink": "leopard",
    "iframeUrl": "https://wi.presales.artificial-solutions.com/leopard-info/",
    "sendContextParams": "all",
    "contextParams": [{
      "name": "channel",
      "values": [{
        "text": "webview",
        "active": true
      }]
    }],
    "locale": "en",
    "chatTitle": "Speak with Leo",
    "responseIcon": "person",
    "userIcon": "fa-comment-alt",
    "useLocalStorage": "false",
    "enableLiveChat": "false",
    "theme": {
      "primary": "#4291B4",
      "secondary": "#7F6764",
      "accent": "#4CAF50",
      "error": "#FF5252",
      "info": "#2196F3",
      "success": "#4CAF50",
      "warning": "#FFC107"
    },
    "knowledgeData": [
      "What's your name?",
      "Who created you?"
    ],
    "float": "true",
    "showChatIcons": "true",
    "asrCorrections": "pizza | Peter\nthiss | that",
    "pulseButton": "true"
  }]
}